Dise침o y Evaluaci칩n de RCTs
…
$logtotal_p_device_value
# A tibble: 21 x 6
   device_value term              estimate  std.error statistic       p.value
   <chr>        <chr>                <dbl>      <dbl>     <dbl>         <dbl>
 1 [$0-$10,000] factor(treat)1  -0.102     0.0994        -1.03    0.305      
 2 [$0-$10,000] factor(treat)2   0.0620    0.0994         0.624   0.533      
 3 [$0-$10,000] factor(treat)3   0.198     0.101          1.96    0.0495     
 4 [$0-$10,000] factor(treat)4  -0.104     0.101         -1.04    0.300      
 5 [$0-$10,000] factor(treat)5  -0.103     0.101         -1.03    0.304      
 6 [$0-$10,000] factor(treat)6   0.104     0.102          1.02    0.308      
 7 [$0-$10,000] age              0.00133   0.000264       5.05    0.000000438
 8 [$10,001+]   total_purchases  0.0000164 0.00000461     3.56    0.000368   
 9 [$10,001+]   factor(treat)4   0         0            NaN     NaN          
10 [$10,001+]   factor(treat)5   0         0            NaN     NaN          
# ... with 11 more rows
…
